<svg xmlns="http://www.w3.org/2000/svg" xmlns:xlink="http://www.w3.org/1999/xlink" preserveAspectRatio="xMidYMid" width="29" height="28" viewBox="0 0 29 28">
  <defs>
    <style>
      .cls-1 {
        fill: #d84b17;
        filter: url(#inner-shadow-1);
        fill-opacity: 0.84;
        fill-rule: evenodd;
      }
    </style>

    <filter id="inner-shadow-1" filterUnits="userSpaceOnUse">
      <feOffset dx="0.5" dy="0.866" in="SourceAlpha"/>
      <feGaussianBlur result="innerShadowBlur"/>
      <feFlood flood-opacity="0.15"/>
      <feComposite operator="out" in2="innerShadowBlur"/>
      <feComposite operator="in" in2="SourceAlpha"/>
      <feBlend in2="SourceGraphic" result="innerShadow"/>
    </filter>
  </defs>
  <path d="M28.069,27.101 C27.469,27.681 26.669,28.002 25.819,28.002 C24.968,28.002 24.168,27.681 23.567,27.101 L20.534,24.172 C20.328,23.973 20.222,23.704 20.244,23.434 C20.266,23.161 20.416,22.908 20.654,22.740 C21.767,21.957 22.743,21.015 23.553,19.941 C23.744,19.688 24.033,19.542 24.345,19.542 C24.602,19.542 24.848,19.643 25.036,19.825 L28.069,22.754 C29.310,23.952 29.310,25.902 28.069,27.101 ZM12.632,24.391 C5.668,24.391 0.002,18.920 0.002,12.195 C0.002,5.470 5.668,-0.002 12.632,-0.002 C19.597,-0.002 25.263,5.470 25.263,12.195 C25.263,18.920 19.597,24.391 12.632,24.391 ZM12.632,3.659 C7.758,3.659 3.793,7.488 3.793,12.195 C3.793,16.901 7.758,20.730 12.632,20.730 C17.506,20.730 21.472,16.901 21.472,12.195 C21.472,7.488 17.506,3.659 12.632,3.659 Z" class="cls-1"/>
</svg>
