<svg xmlns="http://www.w3.org/2000/svg" xmlns:xlink="http://www.w3.org/1999/xlink" preserveAspectRatio="xMidYMid" width="31" height="25" viewBox="0 0 31 25">
  <defs>
    <style>

      .cls-2 {
        fill: #ffffff;
      }
    </style>
  </defs>
  <path d="M29.567,0.475 C28.362,1.197 27.026,1.722 25.605,2.006 C24.468,0.778 22.849,0.013 21.056,0.013 C17.611,0.013 14.820,2.837 14.820,6.318 C14.820,6.812 14.875,7.294 14.981,7.754 C9.799,7.492 5.205,4.981 2.130,1.166 C1.593,2.096 1.287,3.179 1.287,4.335 C1.287,6.524 2.388,8.454 4.060,9.583 C3.037,9.549 2.077,9.264 1.236,8.792 C1.236,8.792 1.236,8.870 1.236,8.870 C1.236,11.925 3.385,14.473 6.236,15.054 C5.714,15.197 5.163,15.275 4.594,15.275 C4.191,15.275 3.802,15.234 3.420,15.161 C4.214,17.665 6.515,19.489 9.243,19.541 C7.110,21.232 4.421,22.239 1.500,22.239 C0.997,22.239 0.500,22.209 0.012,22.152 C2.772,23.940 6.048,24.985 9.570,24.985 C21.039,24.985 27.310,15.377 27.310,7.044 C27.310,7.044 27.290,6.227 27.290,6.227 C28.512,5.342 29.571,4.232 30.406,2.968 C29.287,3.469 28.087,3.810 26.826,3.962 C28.113,3.181 29.100,1.944 29.567,0.475 Z" id="path-1" class="cls-2" fill-rule="evenodd"/>
</svg>
