<svg xmlns="http://www.w3.org/2000/svg" xmlns:xlink="http://www.w3.org/1999/xlink" preserveAspectRatio="xMidYMid" width="43" height="40.97" viewBox="0 0 43 40.97">
  <defs>
    <style>
      .cls-1 {
        fill: #fff695;
        filter: url(#drop-shadow-1);
        fill-rule: evenodd;
      }
    </style>

    <filter id="drop-shadow-1" filterUnits="userSpaceOnUse">
      <feOffset dy="2" in="SourceAlpha"/>
      <feGaussianBlur result="dropBlur"/>
      <feFlood flood-opacity="0.23"/>
      <feComposite operator="in" in2="dropBlur" result="dropShadowComp"/>
      <feComposite in="SourceGraphic" result="shadowed"/>
    </filter>
  </defs>
  <path d="M30.090,39.843 C29.888,39.930 29.673,39.970 29.466,39.970 C28.862,39.970 28.288,39.622 28.031,39.038 C27.692,38.256 28.059,37.349 28.853,37.011 C35.548,34.161 39.869,27.680 39.869,20.499 C39.869,13.291 35.531,6.798 28.816,3.952 C28.020,3.618 27.654,2.710 27.996,1.927 C28.331,1.142 29.255,0.778 30.049,1.118 C37.918,4.449 42.998,12.057 42.997,20.497 C42.997,28.912 37.929,36.506 30.090,39.843 ZM36.263,20.496 C36.263,26.255 32.799,31.451 27.434,33.734 C27.232,33.821 27.020,33.861 26.818,33.861 C26.208,33.861 25.631,33.513 25.377,32.929 C25.036,32.148 25.403,31.240 26.195,30.903 C30.413,29.107 33.137,25.021 33.137,20.496 C33.137,15.951 30.404,11.855 26.159,10.061 C25.366,9.725 24.999,8.818 25.340,8.035 C25.678,7.250 26.599,6.889 27.393,7.224 C32.782,9.507 36.263,14.714 36.263,20.496 ZM29.347,20.494 C29.347,23.514 27.527,26.248 24.713,27.454 C24.510,27.542 24.296,27.583 24.089,27.583 C23.485,27.583 22.911,27.237 22.653,26.655 C22.312,25.873 22.674,24.965 23.468,24.626 C25.137,23.908 26.218,22.285 26.218,20.494 C26.218,18.680 25.127,17.050 23.434,16.343 C22.640,16.010 22.268,15.104 22.611,14.319 C22.946,13.533 23.866,13.174 24.656,13.501 C27.508,14.694 29.347,17.438 29.347,20.494 ZM19.999,37.373 C19.808,37.452 19.601,37.491 19.402,37.491 C18.998,37.491 18.595,37.334 18.296,37.037 L8.809,27.652 L1.567,27.652 C0.701,27.652 0.004,26.962 0.004,26.109 L0.004,14.971 C0.004,14.117 0.701,13.428 1.567,13.428 L8.844,13.428 L18.291,4.042 C18.742,3.597 19.412,3.465 19.994,3.702 C20.580,3.939 20.964,4.503 20.965,5.128 L20.965,35.949 C20.965,36.572 20.585,37.136 19.999,37.373 Z" class="cls-1"/>
</svg>
