<svg xmlns="http://www.w3.org/2000/svg" xmlns:xlink="http://www.w3.org/1999/xlink" preserveAspectRatio="xMidYMid" width="27" height="45" viewBox="0 0 27 45">
  <defs>
    <style>

      .cls-2 {
        fill: #ffffff;
        filter: url(#drop-shadow-1);
      }
    </style>

    <filter id="drop-shadow-1" filterUnits="userSpaceOnUse">
      <feOffset in="SourceAlpha" dx="1" dy="1.732"/>
      <feGaussianBlur result="dropShadow" stdDeviation="0"/>
      <feFlood flood-color="#000000" flood-opacity="0.26"/>
      <feComposite operator="in" in2="dropShadow"/>
      <feComposite in="SourceGraphic" result="dropShadow"/>
    </filter>
  </defs>
  <path d="M22.167,43.999 C22.167,43.999 4.834,26.798 4.834,26.798 C4.834,26.798 4.832,26.799 4.832,26.799 C4.832,26.799 0.499,22.499 0.499,22.499 C0.499,22.499 22.165,0.999 22.165,0.999 C22.165,0.999 26.498,5.299 26.498,5.299 C26.498,5.299 9.167,22.498 9.167,22.498 C9.167,22.498 26.501,39.698 26.501,39.698 C26.501,39.698 22.167,43.999 22.167,43.999 Z" id="path-1" class="cls-2" fill-rule="evenodd"/>
</svg>
